…
<div style="display: flex; align-items: flex-start;">

<img src="Plots/Legendary.png" alt="Image 1" style="height: 300px;"><img src="Plots/Mythical.png" alt="Image 2" style="height: 300px;">

</div>

## <br><br>Count

<br> Okay, so let’s get started and first we will take a look at the
number of pokemon for each category. <br>

    ## # A tibble: 70 × 15
    ##    index name   generation type1 type2 total    hp   atk   def spatk spdef speed
    ##    <dbl> <chr>  <fct>      <chr> <chr> <dbl> <dbl> <dbl> <dbl> <dbl> <dbl> <dbl>
    ##  1   144 Artic… Generatio… Ice   Flyi…   580    90    85   100    95   125    85
    ##  2   145 Zapdos Generatio… Elec… Flyi…   580    90    90    85   125    90   100
    ##  3   146 Moltr… Generatio… Fire  Flyi…   580    90   100    90   125    85    90
    ##  4   150 Mewtwo Generatio… Psyc… None    680   106   110    90   154    90   130
    ##  5   243 Raikou Generatio… Elec… None    580    90    85    75   115   100   115
    ##  6   244 Entei  Generatio… Fire  None    580   115   115    85    90    75   100
    ##  7   245 Suicu… Generatio… Water None    580   100    75   115    90   115    85
    ##  8   249 Lugia  Generatio… Psyc… Flyi…   680   106    90   130    90   154   110
    ##  9   250 Ho-Oh  Generatio… Fire  Flyi…   680   106   130    90   110   154    90
    ## 10   377 Regir… Generatio… Rock  None    580    80   100   200    50   100    50
    ## # ℹ 60 more rows
    ## # ℹ 3 more variables: height <dbl>, weight <dbl>, rank <chr>

    ## # A tibble: 23 × 15
    ##    index name   generation type1 type2 total    hp   atk   def spatk spdef speed
    ##    <dbl> <chr>  <fct>      <chr> <chr> <dbl> <dbl> <dbl> <dbl> <dbl> <dbl> <dbl>
    ##  1   151 Mew    Generatio… Psyc… None    600   100   100   100   100   100   100
    ##  2   251 Celebi Generatio… Psyc… Grass   600   100   100   100   100   100   100
    ##  3   385 Jirac… Generatio… Steel Psyc…   600   100   100   100   100   100   100
    ##  4   386 Deoxys Generatio… Psyc… None    600    50   150    50   150    50   150
    ##  5   489 Phione Generatio… Water None    480    80    80    80    80    80    80
    ##  6   490 Manap… Generatio… Water None    600   100   100   100   100   100   100
    ##  7   491 Darkr… Generatio… Dark  None    600    70    90    90   135    90   125
    ##  8   492 Shaym… Generatio… Grass None    600   100   100   100   100   100   100
    ##  9   493 Arceus Generatio… Norm… None    720   120   120   120   120   120   120
    ## 10   494 Victi… Generatio… Psyc… Fire    600   100   100   100   100   100   100
    ## # ℹ 13 more rows
    ## # ℹ 3 more variables: height <dbl>, weight <dbl>, rank <chr>
…
